Hackfest_2025/serial-secrets-1/uart_log.vcd
$date Fri Sep  5 22:00:27 2025 $end
$version UART generator $end
$timescale 1us $end
$scope module logic $end
$var wire 1 ! UART_TX $end
$upscope $end
$enddefinitions $end
#0
1!
#0
0!
#104
1!
#208
0!
#312
1!
#520
0!
#936
1!
#1040
0!
#1248
1!
#1352
0!
#1456
1!
#1560
0!
#1976
1!
#2080
0!
#2184
1!
#2288
0!
#2392
1!
#2808
0!
#3016
1!
#3120
0!
#3224
1!
#3328
0!
#3432
1!
#3848
0!
#4056
1!
#4160
0!
#4264
1!
#4368
0!
#4472
1!
#4888
0!
#5096
1!
#5200
0!
#5304
1!
#5408
0!
#5512
1!
#5928
0!
#6136
1!
#6240
0!
#6344
1!
#6448
0!
#6552
1!
#6968
0!
#7176
1!
#7280
0!
#7384
1!
#7488
0!
#7592
1!
#8008
0!
#8216
1!
#8320
0!
#8424
1!
#8528
0!
#8632
1!
#9048
0!
#9256
1!
#9360
0!
#9464
1!
#9568
0!
#9672
1!
#10088
0!
#10296
1!
#10400
0!
#10504
1!
#10608
0!
#10712
1!
#11128
0!
#11336
1!
#11440
0!
#11544
1!
#11648
0!
#11752
1!
#12168
0!
#12376
1!
#12480
0!
#12584
1!
#12688
0!
#12792
1!
#13208
0!
#13416
1!
#13520
0!
#13624
1!
#13728
0!
#13832
1!
#14248
0!
#14456
1!
#14560
0!
#14664
1!
#14768
0!
#14872
1!
#15288
0!
#15496
1!
#15600
0!
#15704
1!
#15808
0!
#15912
1!
#16328
0!
#16536
1!
#16640
0!
#16744
1!
#16848
0!
#16952
1!
#17368
0!
#17576
1!
#17680
0!
#17784
1!
#17888
0!
#17992
1!
#18408
0!
#18616
1!
#18720
0!
#18824
1!
#18928
0!
#19032
1!
#19448
0!
#19656
1!
#19760
0!
#19864
1!
#19968
0!
#20072
1!
#20488
0!
#20696
1!
#20800
0!
#20904
1!
#21008
0!
#21112
1!
#21528
0!
#21736
1!
#21840
0!
#21944
1!
#22048
0!
#22152
1!
#22568
0!
#22776
1!
#22880
0!
#22984
1!
#23088
0!
#23192
1!
#23608
0!
#23816
1!
#23920
0!
#24024
1!
#24128
0!
#24232
1!
#24648
0!
#24856
1!
#24960
0!
#25064
1!
#25168
0!
#25272
1!
#25688
0!
#25896
1!
#26000
0!
#26104
1!
#26208
0!
#26312
1!
#26728
0!
#26936
1!
#27040
0!
#27144
1!
#27248
0!
#27352
1!
#27768
0!
#27976
1!
#28080
0!
#28184
1!
#28288
0!
#28392
1!
#28808
0!
#29016
1!
#29120
0!
#29224
1!
#29328
0!
#29432
1!
#29848
0!
#30056
1!
#30160
0!
#30264
1!
#30368
0!
#30472
1!
#30888
0!
#31096
1!
#31200
0!
#31304
1!
#31408
0!
#31512
1!
#31928
0!
#32136
1!
#32240
0!
#32344
1!
#32448
0!
#32552
1!
#32968
0!
#33176
1!
#33280
0!
#33384
1!
#33488
0!
#33592
1!
#34008
0!
#34216
1!
#34320
0!
#34424
1!
#34528
0!
#34632
1!
#35048
0!
#35256
1!
#35360
0!
#35464
1!
#35568
0!
#35672
1!
#36088
0!
#36296
1!
#36400
0!
#36504
1!
#36608
0!
#36712
1!
#37128
0!
#37336
1!
#37440
0!
#37544
1!
#37648
0!
#37752
1!
#38168
0!
#38376
1!
#38480
0!
#38584
1!
#38688
0!
#38792
1!
#39208
0!
#39416
1!
#39520
0!
#39624
1!
#39728
0!
#39832
1!
#40248
0!
#40456
1!
#40560
0!
#40664
1!
#40768
0!
#40872
1!
#41288
0!
#41496
1!
#41600
0!
#41704
1!
#41808
0!
#41912
1!
#42328
0!
#42536
1!
#42640
0!
#42744
1!
#42848
0!
#42952
1!
#43368
0!
#43576
1!
#43680
0!
#43784
1!
#43888
0!
#43992
1!
#44408
0!
#44616
1!
#44720
0!
#44824
1!
#44928
0!
#45032
1!
#45448
0!
#45656
1!
#45760
0!
#45864
1!
#45968
0!
#46072
1!
#46488
0!
#46696
1!
#46800
0!
#46904
1!
#47008
0!
#47112
1!
#47528
0!
#47736
1!
#47840
0!
#47944
1!
#48048
0!
#48152
1!
#48568
0!
#48776
1!
#48880
0!
#48984
1!
#49088
0!
#49192
1!
#49608
0!
#49816
1!
#49920
0!
#50024
1!
#50128
0!
#50232
1!
#50648
0!
#50856
1!
#50960
0!
#51064
1!
#51168
0!
#51272
1!
#51688
0!
#51896
1!
#52000
0!
#52104
1!
#52208
0!
#52312
1!
#52728
0!
#52936
1!
#53040
0!
#53144
1!
#53248
0!
#53352
1!
#53768
0!
#53976
1!
#54080
0!
#54184
1!
#54288
0!
#54392
1!
#54808
0!
#55016
1!
#55120
0!
#55224
1!
#55328
0!
#55432
1!
#55848
0!
#56056
1!
#56160
0!
#56264
1!
#56368
0!
#56472
1!
#56888
0!
#57096
1!
#57200
0!
#57304
1!
#57408
0!
#57512
1!
#57928
0!
#58136
1!
#58240
0!
#58344
1!
#58448
0!
#58552
1!
#58968
0!
#59176
1!
#59280
0!
#59384
1!
#59488
0!
#59592
1!
#60008
0!
#60216
1!
#60320
0!
#60424
1!
#60528
0!
#60632
1!
#61048
0!
#61256
1!
#61360
0!
#61464
1!
#61568
0!
#61672
1!
#62088
0!
#62296
1!
#62400
0!
#62504
1!
#62608
0!
#62712
1!
#63128
0!
#63336
1!
#63440
0!
#63544
1!
#63648
0!
#63752
1!
#64168
0!
#64376
1!
#64480
0!
#64584
1!
#64688
0!
#64792
1!
#65000
0!
#65416
1!
#65520
0!
#65728
1!
#65832
0!
#65936
1!
#66040
0!
#66456
1!
#66560
0!
#66768
1!
#66976
0!
#67288
1!
#67392
0!
#67496
1!
#67600
0!
#67704
1!
#67808
0!
#68016
1!
#68120
0!
#68224
1!
#68432
0!
#68536
1!
#68640
0!
#69056
1!
#69472
0!
#69576
1!
#69680
0!
#69784
1!
#69888
0!
#70096
1!
#70200
0!
#70408
1!
#70512
0!
#70616
1!
#70720
0!
#71032
1!
#71136
0!
#71240
1!
#71552
0!
#71656
1!
#71760
0!
#72384
1!
#72488
0!
#72696
1!
#72800
0!
#73112
1!
#73216
0!
#73528
1!
#73632
0!
#73736
1!
#73840
0!
#73944
1!
#74048
0!
#74152
1!
#74256
0!
#74464
1!
#74672
0!
#74776
1!
#74880
0!
#75088
1!
#75296
0!
#75400
1!
#75712
0!
#75816
1!
#75920
0!
#76024
1!
#76128
0!
#76336
1!
#76440
0!
#76544
1!
#76752
0!
#76856
1!
#76960
0!
#77064
1!
#77272
0!
#77584
1!
#77792
0!
#77896
1!
#78000
0!
#78104
1!
#78208
0!
#78312
1!
#78416
0!
#78624
1!
#78832
0!
#78936
1!
#79040
0!
#79664
1!
#79768
0!
#79976
1!
#80080
0!
#80288
1!
#80392
0!
#80808
1!
#80912
0!
#81016
1!
#81120
0!
#81224
1!
#81640
0!
#81744
1!
#81952
0!
#82056
1!
#82160
0!
#82264
1!
#82680
0!
#82784
1!
#82992
0!
#83096
1!
#83200
0!
#83512
1!
#83616
0!
#83720
1!
#84032
0!
#84136
1!
#84240
0!
#84552
1!
#84760
0!
#84864
1!
#85072
0!
#85176
1!
#85280
0!
#85384
1!
#85800
0!
#85904
1!
#86112
0!
#86216
1!
#86320
0!
#86424
1!
#86528
0!
#86944
1!
#87152
0!
#87256
1!
#87360
0!
#87672
1!
#87776
0!
#87984
1!
#88192
0!
#88296
1!
#88400
0!
#88504
1!
#88608
0!
#88712
1!
#88816
0!
#89024
1!
#89232
0!
#89336
1!
#89440
0!
#89648
1!
#89752
0!
#89960
1!
#90272
0!
#90376
1!
#90480
0!
#91104
1!
#91208
0!
#91416
1!
#91520
0!
#91728
1!
#91936
0!
#92040
1!
#92352
0!
#92456
1!
#92560
0!
#92664
1!
#92768
0!
#93080
1!
#93288
0!
#93496
1!
#93600
0!
#93808
1!
#94120
0!
#94224
1!
#94328
0!
#94536
1!
#94640
0!
#95160
1!
#95368
0!
#95576
1!
#95680
0!
#95888
1!
#96200
0!
#96304
1!
#96408
0!
#96616
1!
#96720
0!
#96824
1!
#96928
0!
#97032
1!
#97136
0!
#97240
1!
#97448
0!
#97656
1!
#97760
0!
#97864
1!
#97968
0!
#98072
1!
#98280
0!
#98696
1!
#98800
0!
#99008
1!
#99112
0!
#99216
1!
#99320
0!
#99736
1!
#99840
0!
#99944
1!
#100048
0!
#100568
1!
#100672
0!
#100776
1!
#100880
0!
#100984
1!
#101088
0!
#101192
1!
#101296
0!
#101400
1!
#101712
0!
#101816
1!
#101920
0!
#102232
1!
#102336
0!
#102440
1!
#102752
0!
#102856
1!
#102960
0!
#103376
1!
#103480
0!
#103584
1!
#103792
0!
#103896
1!
#104000
0!
#104104
1!
#104520
0!
#104624
1!
#104832
0!
#104936
1!
#105040
0!
#105248
1!
#105352
0!
#105560
1!
#105872
0!
#105976
1!
#106080
0!
#106288
1!
#106392
0!
#106496
1!
#106808
0!
#107016
1!
#107120
0!
#107744
1!
#107848
0!
#108056
1!
#108160
0!
#108368
1!
#108576
0!
#108888
1!
#108992
0!
#109096
1!
#109200
0!
#109304
1!
#109408
0!
#109616
1!
#109720
0!
#109824
1!
#110032
0!
#110136
1!
#110240
0!
#110656
1!
#111072
0!
#111176
1!
#111280
0!
#111384
1!
#111488
0!
#111696
1!
#111800
0!
#112008
1!
#112112
0!
#112216
1!
#112320
0!
#112632
1!
#112736
0!
#112840
1!
#113152
0!
#113256
1!
#113360
0!
#113984
1!
#114088
0!
#114296
1!
#114400
0!
#114504
1!
#114712
0!
#114920
1!
#115024
0!
#115128
1!
#115232
0!
#115336
1!
#115440
0!
#115544
1!
#115648
0!
#115752
1!
#115856
0!
#116064
1!
#116272
0!
#116376
1!
#116480
0!
#116584
1!
#116792
0!
#117104
1!
#117312
0!
#117416
1!
#117520
0!
#117624
1!
#117728
0!
#117832
1!
#117936
0!
#118040
1!
#118352
0!
#118456
1!
#118560
0!
#118768
1!
#118872
0!
#119080
1!
#119392
0!
#119496
1!
#119600
0!
#119704
1!
#119808
0!
#120016
1!
#120120
0!
#120224
1!
#120432
0!
#120536
1!
#120640
0!
#120952
1!
#121056
0!
#121160
1!
#121472
0!
#121576
1!
#121680
0!
#121784
1!
#121888
0!
#122096
1!
#122512
0!
#122616
1!
#122720
0!
#123344
1!
#123448
0!
#123656
1!
#123760
0!
#123864
1!
#124072
0!
#124280
1!
#124384
0!
#124488
1!
#124592
0!
#124696
1!
#124800
0!
#124904
1!
#125320
0!
#125424
1!
#125632
0!
#125736
1!
#125840
0!
#126152
1!
#126360
0!
#126464
1!
#126672
0!
#126776
1!
#126880
0!
#126984
1!
#127088
0!
#127192
1!
#127296
0!
#127400
1!
#127712
0!
#127816
1!
#127920
0!
#128232
1!
#128336
0!
#128440
1!
#128752
0!
#128856
1!
#128960
0!
#129064
1!
#129168
0!
#129376
1!
#129480
0!
#129584
1!
#129792
0!
#129896
1!
#130000
0!
#130104
1!
#130520
0!
#130624
1!
#130832
0!
#130936
1!
#131040
0!
#131248
1!
#131560
0!
#131664
1!
#131872
0!
#131976
1!
#132080
0!
#132184
1!
#132392
0!
#132600
1!
#132912
0!
#133016
1!
#133120
0!
#133224
1!
#133328
0!
#133432
1!
#133640
0!
#134056
1!
#134160
0!
#134368
1!
#134472
0!
#134576
1!
#134680
0!
#135096
1!
#135200
0!
#135616
1!
#135720
0!
#135928
1!
#136032
0!
#136136
1!
#136240
0!
#136344
1!
#136448
0!
#136864
1!
#137072
0!
#137176
1!
#137280
0!
#137488
1!
#137592
0!
#137800
1!
#138112
0!
#138216
1!
#138320
0!
#138632
1!
#138736
0!
#138944
1!
#139152
0!
#139256
1!
#139360
0!
#139464
1!
#139776
0!
#139880
1!
#140192
0!
#140296
1!
#140400
0!
#140504
1!
#140608
0!
#141024
1!
#141232
0!
#141336
1!
#141440
0!
#141648
1!
#141752
0!
#141960
1!
#142272
0!
#142376
1!
#142480
0!
#142584
1!
#142688
0!
#142792
1!
#142896
0!
#143104
1!
#143312
0!
#143416
1!
#143520
0!
#143728
1!
#143832
0!
#143936
1!
#144248
0!
#144456
1!
#144560
0!
#145184
1!
#145288
0!
#145496
1!
#145600
0!
#145704
1!
#145808
0!
#146328
1!
#146432
0!
#146536
1!
#146640
0!
#146848
1!
#146952
0!
#147160
1!
#147264
0!
#147368
1!
#147472
0!
#147576
1!
#147680
0!
#147784
1!
#147888
0!
#147992
1!
#148200
0!
#148408
1!
#148512
0!
#148616
1!
#148720
0!
#149344
1!
#149448
0!
#149656
1!
#149760
0!
#149864
1!
#150072
0!
#150488
1!
#150592
0!
#150696
1!
#150800
0!
#150904
1!
#151320
0!
#151424
1!
#151632
0!
#151736
1!
#151840
0!
#152048
1!
#152152
0!
#152360
1!
#152672
0!
#152776
1!
#152880
0!
#153192
1!
#153296
0!
#153400
1!
#153712
0!
#153816
1!
#153920
0!
#154024
1!
#154128
0!
#154232
1!
#154336
0!
#154544
1!
#154752
0!
#154856
1!
#154960
0!
#155376
1!
#155792
0!
#155896
1!
#156000
0!
#156104
1!
#156208
0!
#156312
1!
#156520
0!
#156624
1!
#156728
0!
#156936
1!
#157040
0!
#157144
1!
#157248
0!
#157352
1!
#157560
0!
#157768
1!
#157872
0!
#157976
1!
#158080
0!
#158392
1!
#158496
0!
#158600
1!
#158808
0!
#159016
1!
#159120
0!
#159328
1!
#159536
0!
#159848
1!
#159952
0!
#160056
1!
#160160
0!
#160784
1!
#160888
0!
#161096
1!
#161200
0!
#161928
1!
#162032
0!
#162136
1!
#162240
0!
#162864
1!
#162968
0!
#163176
1!
#163280
0!
#163384
1!
#163488
0!
#163800
1!
#164008
0!
#164216
1!
#164320
0!
#164528
1!
#164736
0!
#164840
1!
#165048
0!
#165256
1!
#165360
0!
#165776
1!
#166088
0!
#166296
1!
#166400
0!
#166504
1!
#166608
0!
#166712
1!
#166920
0!
#167128
1!
#167232
0!
#167336
1!
#167440
0!
#167856
1!
#167960
0!
#168168
1!
#168272
0!
#168376
1!
#168480
0!
#168688
1!
#168792
0!
#168896
1!
#169312
0!
#169416
1!
#169520
0!
#169624
1!
#169728
0!
#169832
1!
#170040
0!
#170456
1!
#170560
0!
#170768
1!
#170872
0!
#170976
1!
#171080
0!
#171496
1!
#171600
0!
#171808
1!
#172016
0!
#172328
1!
#172432
0!
#172536
1!
#172640
0!
#172952
1!
#173160
0!
#173264
1!
#173472
0!
#173576
1!
#173680
0!
#173784
1!
#173888
0!
#174304
1!
#174512
0!
#174616
1!
#174720
0!
#174824
1!
#175032
0!
#175240
1!
#175552
0!
#175656
1!
#175760
0!
#176176
1!
#176280
0!
#176384
1!
#176592
0!
#176696
1!
#176800
0!
#177008
1!
#177112
0!
#177216
1!
#177528
0!
#177736
1!
#177840
0!
#178464
1!
#178568
0!
#178776
1!
#178880
0!
#179088
1!
#179192
0!
#179400
1!
#179608
0!
#179816
1!
#179920
0!
#180024
1!
#180128
0!
#180232
1!
#180440
0!
#180648
1!
#180752
0!
#180856
1!
#180960
0!
#181168
1!
#181272
0!
#181688
1!
#181792
0!
#181896
1!
#182000
0!
#182312
1!
#182520
0!
#182624
1!
#182728
0!
#182936
1!
#183040
0!
#183664
1!
#183768
0!
#183976
1!
#184080
0!
#184288
1!
#184392
0!
#184600
1!
#184704
0!
#184808
1!
#184912
0!
#185016
1!
#185120
0!
#185224
1!
#185328
0!
#185848
1!
#185952
0!
#186056
1!
#186160
0!
#186264
1!
#186368
0!
#186472
1!
#186680
0!
#186888
1!
#186992
0!
#187096
1!
#187200
0!
#187408
1!
#187512
0!
#187616
1!
#187928
0!
#188136
1!
#188240
0!
#188864
1!
#188968
0!
#189176
1!
#189280
0!
#189384
1!
#189488
0!
#189592
1!
#189696
0!
#189800
1!
#190008
0!
#190216
1!
#190320
0!
#190424
1!
#190528
0!
#190840
1!
#191048
0!
#191256
1!
#191360
0!
#191568
1!
#191672
0!
#191880
1!
#192088
0!
#192296
1!
#192400
0!
#192504
1!
#192712
0!
#192816
1!
#192920
0!
#193128
1!
#193232
0!
#193336
1!
#193440
0!
#193648
1!
#193752
0!
#194168
1!
#194272
0!
#194376
1!
#194480
0!
#194584
1!
#194688
0!
#194792
1!
#195000
0!
#195416
1!
#195520
0!
#195728
1!
#195832
0!
#195936
1!
#196040
0!
#196456
1!
#196560
0!
#196872
1!
#196976
0!
#197288
1!
#197392
0!
#197496
1!
#197600
0!
#197704
1!
#197808
0!
#197912
1!
#198016
0!
#198224
1!
#198432
0!
#198536
1!
#198640
0!
#198848
1!
#199056
0!
#199160
1!
#199472
0!
#199576
1!
#199680
0!
#199784
1!
#199888
0!
#200096
1!
#200200
0!
#200304
1!
#200512
0!
#200616
1!
#200720
0!
#200824
1!
#201032
0!
#201344
1!
#201552
0!
#201656
1!
#201760
0!
#201864
1!
#201968
0!
#202072
1!
#202176
0!
#202384
1!
#202592
0!
#202696
1!
#202800
0!
#203424
1!
#203528
0!
#203736
1!
#203840
0!
#203944
1!
#204048
0!
#204256
1!
#204360
0!
#204568
1!
#204672
0!
#204776
1!
#204880
0!
#205192
1!
#205296
0!
#205608
1!
#205712
0!
#205816
1!
#205920
0!
#206128
1!
#206232
0!
#206336
1!
#206648
0!
#206856
1!
#206960
0!
#207584
1!
#207688
0!
#207896
1!
#208000
0!
#208208
1!
#208416
0!
#208728
1!
#208832
0!
#208936
1!
#209040
0!
#209144
1!
#209248
0!
#209456
1!
#209560
0!
#209768
1!
#209872
0!
#209976
1!
#210080
0!
#210496
1!
#210704
0!
#210808
1!
#210912
0!
#211016
1!
#211120
0!
#211224
1!
#211328
0!
#211536
1!
#211640
0!
#211848
1!
#211952
0!
#212056
1!
#212160
0!
#212472
1!
#212576
0!
#212680
1!
#212784
0!
#212888
1!
#212992
0!
#213096
1!
#213200
0!
#213304
1!
#213408
0!
#213512
1!
#213720
0!
#213824
1!
#213928
0!
#214136
1!
#214240
0!
#214448
1!
#214552
0!
#214760
1!
#214968
0!
#215176
1!
#215280
0!
#215800
1!
#216008
0!
#216216
1!
#216320
0!
#216528
1!
#216632
0!
#216840
1!
#217048
0!
#217256
1!
#217360
0!
#217464
1!
#217568
0!
#217672
1!
#217776
0!
#217880
1!
#218088
0!
#218296
1!
#218400
0!
#218504
1!
#218608
0!
#218712
1!
#218920
0!
#219024
1!
#219128
0!
#219336
1!
#219440
0!
#219752
1!
#219856
0!
#220168
1!
#220272
0!
#220376
1!
#220480
0!
#220584
1!
#220688
0!
#220792
1!
#220896
0!
#221208
1!
#221312
0!
#221416
1!
#221520
0!
#221728
1!
#221936
0!
#222040
1!
#222144
0!
#222248
1!
#222352
0!
#222456
1!
#222560
0!
#222664
1!
#222768
0!
#222872
1!
#223080
0!
#223184
1!
#223288
0!
#223496
1!
#223600
0!
#223704
1!
#223808
0!
#224120
1!
#224328
0!
#224536
1!
#224640
0!
#224744
1!
#224952
0!
#225160
1!
#225368
0!
#225576
1!
#225680
0!
#225784
1!
#225992
0!
#226200
1!
#226408
0!
#226616
1!
#226720
0!
#226824
1!
#227136
0!
#227240
1!
#227448
0!
#227656
1!
#227760
0!
#227864
1!
#227968
0!
#228072
1!
#228280
0!
#228696
1!
#228800
0!
#229008
1!
#229112
0!
#229216
1!
#229320
0!
#229736
1!
#229840
0!
#230048
1!
#230256
0!
#230568
1!
#230672
0!
#230776
1!
#230880
0!
#230984
1!
#231088
0!
#231296
1!
#231400
0!
#231504
1!
#231712
0!
#231816
1!
#231920
0!
#232128
1!
#232232
0!
#232440
1!
#232752
0!
#232856
1!
#232960
0!
#233064
1!
#233168
0!
#233272
1!
#233480
0!
#233584
1!
#233792
0!
#233896
1!
#234000
0!
#234104
1!
#234416
0!
#234520
1!
#234832
0!
#234936
1!
#235040
0!
#235144
1!
#235248
0!
#235664
1!
#235872
0!
#235976
1!
#236080
0!
#236288
1!
#236392
0!
#236600
1!
#236912
0!
#237016
1!
#237120
0!
#237224
1!
#237328
0!
#237432
1!
#237536
0!
#237744
1!
#237952
0!
#238056
1!
#238160
0!
#238368
1!
#238472
0!
#238576
1!
#238888
0!
#239096
1!
#239200
0!
#239824
1!
#239928
0!
#240136
1!
#240240
0!
#240448
1!
#240656
0!
#240760
1!
#241072
0!
#241176
1!
#241280
0!
#241384
1!
#241488
0!
#241800
1!
#242008
0!
#242216
1!
#242320
0!
#242528
1!
#242840
0!
#242944
1!
#243048
0!
#243256
1!
#243360
0!
#243464
1!
#243568
0!
#243672
1!
#243776
0!
#243880
1!
#244088
0!
#244296
1!
#244400
0!
#244608
1!
#244920
0!
#245024
1!
#245128
0!
#245336
1!
#245440
0!
#245648
1!
#245752
0!
#245960
1!
#246168
0!
#246376
1!
#246480
0!
#246584
1!
#246688
0!
#246792
1!
#247000
0!
#247104
1!
#247208
0!
#247416
1!
#247520
0!
#247832
1!
#247936
0!
#248144
1!
#248352
0!
#248456
1!
#248560
0!
#248664
1!
#248768
0!
#248872
1!
#248976
0!
#249184
1!
#249392
0!
#249496
1!
#249600
0!
#249808
1!
#249912
0!
#250224
1!
#250432
0!
#250536
1!
#250640
0!
#250744
1!
#250848
0!
#250952
1!
#251056
0!
#251160
1!
#251472
0!
#251576
1!
#251680
0!
#251784
1!
#252096
0!
#252304
1!
#252512
0!
#252616
1!
#252720
0!
#253344
1!
#253448
0!
#253656
1!
#253760
0!
#253864
1!
#254072
0!
#254176
1!
#254384
0!
#254488
1!
#254592
0!
#254696
1!
#254800
0!
#255008
1!
#255112
0!
#255528
1!
#255632
0!
#255736
1!
#255840
0!
#255944
1!
#256048
0!
#256152
1!
#256256
0!
#256360
1!
#256464
0!
#256568
1!
#256672
0!
#256776
1!
#256880
0!
#256984
1!
#257088
0!
#257296
1!
#257400
0!
#257608
1!
#257712
0!
#257816
1!
#257920
0!
#258232
1!
#258440
0!
#258648
1!
#258752
0!
#258856
1!
#258960
0!
#259272
1!
#259376
0!
#259688
1!
#259792
0!
#259896
1!
#260000
0!
#260208
1!
#260312
0!
#260416
1!
#260728
0!
#260936
1!
#261040
0!
#261664
1!
#261768
0!
#261976
1!
#262080
0!
#262288
1!
#262392
0!
#262496
1!
#262600
0!
#262808
1!
#262912
0!
#263016
1!
#263120
0!
#263224
1!
#263328
0!
#263744
1!
#263952
0!
#264056
1!
#264160
0!
#264368
1!
#264680
0!
#264784
1!
#264992
0!
#265096
1!
#265200
0!
#265824
1!
#265928
0!
#266136
1!
#266240
0!
#266344
1!
#266448
0!
#266760
1!
#266968
0!
#267176
1!
#267280
0!
#267800
1!
#268008
0!
#268216
1!
#268320
0!
#268944
1!
#269048
0!
#269256
1!
#269360
0!
#269568
1!
#269672
0!
#269880
1!
#270088
0!
#270296
1!
#270400
0!
#270920
1!
#271128
0!
#271336
1!
#271440
0!
#271648
1!
#271752
0!
#271960
1!
#272168
0!
#272376
1!
#272480
0!
#272792
1!
#272896
0!
#273000
1!
#273208
0!
#273416
1!
#273520
0!
#273624
1!
#273728
0!
#273832
1!
#274144
0!
#274248
1!
#274352
0!
#274456
1!
#274560
0!
#274664
1!
#274768
0!
#274872
1!
#275080
0!
#275496
1!
#275600
0!
#275808
1!
#275912
0!
#276016
1!
#276120
0!
#276536
1!
#276640
0!
#276744
1!
#276848
0!
#276952
1!
#277160
0!
#277576
1!
#277680
0!
#277888
1!
#277992
0!
#278096
1!
#278200
0!
#278616
1!
#278720
0!
#278824
1!
#279032
0!
#279136
1!
#279344
0!
#279448
1!
#279552
0!
#279656
1!
#279760
0!
#279968
1!
#280072
0!
#280488
1!
#280592
0!
#280696
1!
#280800
0!
#280904
1!
#281320
0!
#281528
1!
#281632
0!
#281736
1!
#281840
0!
#281944
1!
#282360
0!
#282568
1!
#282672
0!
#282776
1!
#282880
0!
#283192
1!
#283296
0!
#283400
1!
#283504
0!
#283608
1!
#283712
0!
#283816
1!
#283920
0!
#284024
1!
#284128
0!
#284232
1!
#284544
0!
#284648
1!
#284752
0!
#284856
1!
#284960
0!
#285584
1!
#285688
0!
#285896
1!
#286000
0!
#286104
1!
#286208
0!
#286416
1!
#286520
0!
#286728
1!
#286832
0!
#286936
1!
#287040
0!
#287248
1!
#287560
0!
#287664
1!
#287872
0!
#287976
1!
#288080
0!
#288184
1!
#288288
0!
#288496
1!
#288600
0!
#288704
1!
#288912
0!
#289016
1!
#289120
0!
#289432
1!
#289536
0!
#289640
1!
#289952
0!
#290056
1!
#290160
0!
#290264
1!
#290368
0!
#290576
1!
#290680
0!
#290784
1!
#290992
0!
#291096
1!
#291200
0!
#291304
1!
#291408
0!
#291824
1!
#292032
0!
#292136
1!
#292240
0!
#292552
1!
#292760
0!
#292864
1!
#293072
0!
#293176
1!
#293280
0!
#293384
1!
#293488
0!
#293696
1!
#293800
0!
#293904
1!
#294112
0!
#294216
1!
#294320
0!
#294528
1!
#294632
0!
#294736
1!
#295152
0!
#295256
1!
#295360
0!
#295464
1!
#295568
0!
#295776
1!
#295880
0!
#295984
1!
#296192
0!
#296296
1!
#296400
0!
#296608
1!
#296920
0!
#297024
1!
#297232
0!
#297336
1!
#297440
0!
#297544
1!
#297856
0!
#298064
1!
#298272
0!
#298376
1!
#298480
0!
#299104
1!
#299208
0!
#299416
1!
#299520
0!
#299728
1!
#299936
0!
#300248
1!
#300352
0!
#300456
1!
#300560
0!
#300664
1!
#300768
0!
#300976
1!
#301080
0!
#301184
1!
#301392
0!
#301496
1!
#301600
0!
#302016
1!
#302432
0!
#302536
1!
#302640
0!
#302744
1!
#302848
0!
#303056
1!
#303160
0!
#303368
1!
#303472
0!
#303576
1!
#303680
0!
#303992
1!
#304096
0!
#304200
1!
#304512
0!
#304616
1!
#304720
0!
#305344
1!
#305448
0!
#305656
1!
#305760
0!
#305864
1!
#306072
0!
#306280
1!
#306592
0!
#306696
1!
#306800
0!
#306904
1!
#307008
0!
#307112
1!
#307216
0!
#307320
1!
#307632
0!
#307736
1!
#307840
0!
#308048
1!
#308152
0!
#308464
1!
#308672
0!
#308776
1!
#308880
0!
#308984
1!
#309192
0!
#309400
1!
#309712
0!
#309816
1!
#309920
0!
#310024
1!
#310128
0!
#310336
1!
#310752
0!
#310856
1!
#310960
0!
#311064
1!
#311272
0!
#311480
1!
#311792
0!
#311896
1!
#312000
0!
#312312
1!
#312416
0!
#312520
1!
#312832
0!
#312936
1!
#313040
0!
#313144
1!
#313248
0!
#313352
1!
#313456
0!
#313664
1!
#313872
0!
#313976
1!
#314080
0!
#314184
1!
#314288
0!
#314392
1!
#314600
0!
#314704
1!
#314912
0!
#315016
1!
#315120
0!
#315224
1!
#315432
0!
#315640
1!
#315952
0!
#316056
1!
#316160
0!
#316368
1!
#316680
0!
#316784
1!
#316888
0!
#317096
1!
#317200
0!
#317408
1!
#317720
0!
#317824
1!
#317928
0!
#318136
1!
#318240
0!
#318448
1!
#318760
0!
#318864
1!
#318968
0!
#319176
1!
#319280
0!
#319384
1!
#319488
0!
#319592
1!
#319800
0!
#320216
1!
#320320
0!
#320528
1!
#320632
0!
#320736
1!
#320840
0!
#321256
1!
#321360
0!
#321464
1!
#321672
0!
#321776
1!
#321984
0!
#322088
1!
#322192
0!
#322296
1!
#322400
0!
#322608
1!
#322712
0!
#323128
1!
#323232
0!
#323336
1!
#323440
0!
#323544
1!
#323960
0!
#324168
1!
#324272
0!
#324376
1!
#324480
0!
#324584
1!
#325000
0!
#325208
1!
#325312
0!
#325416
1!
#325520
0!
#325832
1!
#325936
0!
#326040
1!
#326144
0!
#326248
1!
#326352
0!
#326456
1!
#326560
0!
#326664
1!
#326768
0!
#326872
1!
#327184
0!
#327288
1!
#327392
0!
#327496
1!
#327600
0!
#328224
1!
#328328
0!
#328536
1!
#328640
0!
#328744
1!
#328848
0!
#328952
1!
#329160
0!
#329368
1!
#329472
0!
#329576
1!
#329680
0!
#329784
1!
#329888
0!
#329992
1!
#330096
0!
#330304
1!
#330512
0!
#330616
1!
#330720
0!
#330824
1!
#330928
0!
#331032
1!
#331240
0!
#331344
1!
#331552
0!
#331656
1!
#331760
0!
#331864
1!
#332280
0!
#332384
1!
#332592
0!
#332696
1!
#332800
0!
#333008
1!
#333112
0!
#333320
1!
#333632
0!
#333736
1!
#333840
0!
#333944
1!
#334048
0!
#334256
1!
#334672
0!
#334776
1!
#334880
0!
#335504
1!
#335608
0!
#335816
1!
#335920
0!
#336232
1!
#336336
0!
#336440
1!
#336752
0!
#336856
1!
#336960
0!
#337064
1!
#337168
0!
#337272
1!
#337376
0!
#337584
1!
#337792
0!
#337896
1!
#338000
0!
#338104
1!
#338312
0!
#338520
1!
#338832
0!
#338936
1!
#339040
0!
#339352
1!
#339456
0!
#339560
1!
#339872
0!
#339976
1!
#340080
0!
#340288
1!
#340392
0!
#340496
1!
#340808
0!
#341016
1!
#341120
0!
#341744
1!
#341848
0!
#342056
1!
#342160
0!
#342680
1!
#342784
0!
#342888
1!
#342992
0!
#343096
1!
#343200
0!
#343304
1!
#343408
0!
#343928
1!
#344032
0!
#344136
1!
#344240
0!
#344344
1!
#344552
0!
#344760
1!
#344864
0!
#344968
1!
#345072
0!
#345176
1!
#345280
0!
#345384
1!
#345592
0!
#345800
1!
#345904
0!
#346008
1!
#346112
0!
#346216
1!
#346320
0!
#346424
1!
#346528
0!
#346632
1!
#346840
0!
#347256
1!
#347360
0!
#347568
1!
#347672
0!
#347776
1!
#347880
0!
#348296
1!
#348400
0!
#348504
1!
#348712
0!
#348816
1!
#349024
0!
#349128
1!
#349232
0!
#349336
1!
#349440
0!
#349648
1!
#349752
0!
#350168
1!
#350272
0!
#350376
1!
#350480
0!
#350584
1!
#351000
0!
#351208
1!
#351312
0!
#351416
1!
#351520
0!
#351624
1!
#352040
0!
#352248
1!
#352352
0!
#352456
1!
#352560
0!
#352872
1!
#352976
0!
#353080
1!
#353184
0!
#353288
1!
#353392
0!
#353496
1!
